[
    {
      "title": "Atobe Keigo",
      "personality": "<p>Charismatic and arrogant, Atobe Keigo is the man in front of the two hundred member strong Hyoutei Tennis Club. The national-level tennis player is the best of the best, knows it, and flaunts it with every self-assured movement and word. The one single truth of his life is that he <em>will not</em> lose, because there is simply no one better than him.</p>\r\n\r\n<p>He is arrogant, pretentious and aloof, but one can't help but be fascinated by his his unyielding self-confidence. He is a narcissist, but he knows how to turn the fact to his (and his team's) advantage. He is a natural, charismatic leader, the sort that can rouse crowds with a few well-chosen words and gestures. He's not merely Hyoutei's captain. He is their inspiration, their rallying point and their idol.</p>",
      "stats": "<li><strong> Blood type:</strong> A </li>\r\n<li><strong> Birthday:</strong> October 4 </li>\r\n<li><strong> Height:</strong> 175cm </li>\r\n<li><strong> Weight:</strong> 62kg </li>\r\n<li><strong> Dominant hand:</strong> right</li>\r\n<li><strong> Playstyle:</strong> all-rounder </li>\r\n<li><strong> Tennis moves:</strong> Hametsu E No Rondo, Insight </li>\r\n<li><strong> Favorite foods:</strong> roast beef and Yorkshire pudding</li>\r\n<li><strong> Hobbies:</strong> fly-fishing, reading</li>\r\n<li><strong> Family:</strong> grandfather, grandmother, father, mother</li>\r\n<li><strong> Best subjects:</strong> all subjects, Greek</li>\r\n<li><strong> Fave colors:</strong> gold, black</li>",
      "pic": "boys_kei.jpg",
      "seiyuu": "Suwabe Junichi",
      "seiyuustats": "<li><strong> Blood Type:</strong> A </li>\r\n<li><strong> Birthday:</strong> March 29, 1972</li>\r\n<li><strong> Height:</strong> 173cm </li>\r\n<li><strong> Weight:</strong> about 60 Kg </li>\r\n<li><strong> Birthplace:</strong> Tokyo</li>\r\n<li><strong> Nickname:</strong> Jun Jun</li>\r\n"
    },
    {
      "title": "Oshitari Yuushi",
      "personality": "<p>Laid-back and self-assured Oshitari is one half of Hyoutei's star doubles pair. Described by Atobe as Hyoutei's tennis prodigy and its \"most troublesome\" guy, Oshitari is coiled, carefully contained danger waiting to be released. He resembles nothing if not a wild feline sleeping in the sun, graceful and deadly at once. </p>\r\n\r\n<p>Oshitari is the sort of guy that purrs instead of speaking and is never fazed by anything around him. He is undoubtably just as arrogant as Atobe, but unlike the captain, feels no particular need to flaunt himself. He doesn't need to, because he has what so many want and so few trully have; quite simply, Oshitari is what they had in mind when they invented the term \"cool\".</p>\r\n\r\n<p>And yet, there is another side to Oshitari Yuushi, a side that isn't inmediately evident to readers and probably not to most of his team mates either. In his image song, Oshitari refers to himself as \"poker face\"; the most obvious meaning of this is that he doesn't reveal his weaknesses or his true strength lightly, but it also means that he doesn't show his true self easily, prefering to hide behing his cool persona (this is rather explicitly exemplified by the fact that he chooses to wear glasses even though he has perfect vision). Underneath it all, Yuushi is an extremely sensitive guy, who enjoys watch sappy romance movies, cries easily, and is fiercely loyal to friends. (This was all revealed in 20.5, btw).</p>",
      "stats": "<li><strong> Blood type:</strong> A </li>\r\n<li><strong> Birthday:</strong> October 15 </li>\r\n<li><strong> Height:</strong> 178cm </li>\r\n<li><strong> Dominant hand:</strong> right</li>\r\n<li><strong> Favorite foods:</strong> \"kazu\" juice, \"sagoshikizushi\"</li> <li><strong> Hobbies:</strong> watching sappy romance movies</li>\r\n<li><strong> Best subjects:</strong> Math, Chemestry, Applied Arts</li>\r\n<li><strong> Fave colors:</strong> red</li>",
      "pic": "boys_yuushi.jpg",
      "seiyuu": "Kiuchi Hidenobu",
      "seiyuustats": "<li><strong> Height:</strong> 177cm </li>\r\n<li><strong> Weight:</strong> 80kg </li>\r\n<li><strong> Birthday:</strong> February 5</li>\r\n<li><strong> Birthplace:</strong> Kobe (Kansai) </li>\r\n<li><strong> Hobbies:</strong> camping and travelling</li>"
    },
    {
      "title": "Mukahi Gakuto",
      "personality": "<p>Sassy little <strike>uke</strike> bitch is probably the best way to describe Gakuto. While vanity and conceit are certainly not uncommon in Hyoutei, Gakuto clearly enjoys taunting his opponents. He also seems unable to accept an opponent's strengths and virtues for what they are.</p>\r\n\r\n<p>He loves to be center of attention, and that is reflected in his style of tennis. While he is arguably THE best in acrobatic tennis, he indulges in it to an extreme that eventually hurts him: he loses stamina quickly, and is often not in position if an opponent manages to return his shots. In this sense he is completely dependent on his doubles partner Oshitari being there to pick up the slack and provide support.</p>",
      "stats": "<li><strong> Blood type:</strong> B </li>\r\n<li><strong> Birthday:</strong> September 12 </li>\r\n<li><strong> Height:</strong> 158cm</li>\r\n<li><strong> Dominant hand:</strong> left</li>\r\n<li><strong> Favorite foods:</strong> fried foods, natto (fermented soybeans)</li>\r\n<li><strong> Hobbies:</strong> bungee-jumping, collecting shuttlecock accesories (badminton birdies)</li>\r\n<li><strong> Best subjects:</strong> Chemestry, English, Phys. Ed.</li>\r\n<li><strong> Fave color:</strong> red</li>",
      "pic": "boys_gakuto.jpg",
      "seiyuu": "Hoshi Souichirou",
      "seiyuustats": "<li><strong> Blood Type:</strong> B </li>\r\n<li><strong> Birthday:</strong> May 30, 1972</li>\r\n<li><strong> Birthplace:</strong> Fukushima</li>\r\n<li><strong> Hobbies:</strong> karaoke and driving</li>"
    },
    {
      "title": "Akutagawa Jiroh",
      "personality": "",
      "stats": "<li><strong> Blood Type:</strong> AB  </li>\r\n<li><strong> Birthday:</strong> May 5 </li>\r\n<li><strong> Height:</strong> 160cm</li>\r\n<li><strong> Dominant hand:</strong> right</li>\r\n<li><strong> Favorite foods:</strong> lamb, mousse pocky</li>\r\n<li><strong> Hobbies:</strong> reading manga mags, sleeping</li>\r\n<li><strong> Best subjects:</strong> Applied Arts, Phys. Ed.</li>\r\n<li><strong> Fave color:</strong> orange</li>",
      "pic": "boys_jiroh.jpg",
      "seiyuu": "Ueda Yuuji",
      "seiyuustats": "<li><strong> Blood type:</strong> A</li>\r\n<li><strong> Birthday:</strong> June 15, 1967</li>\r\n<li><strong> Birthplace:</strong> Fukuoka</li>"
    },
    {
      "title": "Shishido Ryoh",
      "personality": "<p>Melodramatic, beautiful Shishido starts out very much a conceited, self-indulgent brat. He wasn't simply vain about his tennis skills, an area in which he believed himself better than he was; his physical appearance (his long hair in particular) was very important to him. Shishido was very much blinded by his vanity, and he was fated to a <em>very</em> rude awakening. He was humiliatingly crushed by Fudomine's Tachibana, and lost his spot as a regular. Shishido fell just as far as he could... but he also managed to climb back up again. He left behind any false illusions about himself and learned to accept his short comings. </p>\r\n\r\n<p>In the end, the now short-haired, scarred Shishido replaced blind vanity with a fierce, hard pride earned in pain and determination. But his greatest gain was learning to trust and rely on someone else, and learning to be relied on in return. And it was Ohtori, his new doubles partner, that taught him that.</p>",
      "stats": "<li><strong> Blood Type:</strong> B </li>\r\n<li><strong> Birthday:</strong> September 29</li>\r\n<li><strong> Height:</strong> 172cm </li>\r\n<li><strong> Dominant hand:</strong> right</li>\r\n<li><strong> Favorite foods:</strong> cheese sandwich, mint chewing gum</li>\r\n<li><strong> Hobbies:</strong> billiards</li>\r\n<li><strong> Best subjects:</strong> Geography, History</li>\r\n<li><strong> Fave colors:</strong> red, purple</li>",
      "pic": "boys_shishismex.jpg",
      "seiyuu": "Kusuda Toshiyuki",
      "seiyuustats": "<li><strong> Blood type:</strong> O</li> \r\n<li><strong> Height:</strong> 170cm</li>\r\n<li><strong> Birthday:</strong> August 25, 1969</li>\r\n<li><strong> Favorite foods:</strong> eel, mandarin orange, tea</li>\r\n<li><strong> Hobbies:</strong> piano, music composition, mountain climbing</li>"
    },
    {
      "title": "Ohtori Choutarou",
      "personality": "<p>Second-year Ohtori is the \"good boy\" of Hyoutei and the typical boy next door. Among his team mates' towering egos, he stands out by his remarkable lack of vanity. He is aware of what a formidable player he is, but is very matter of fact and good-natured about it. He's able to laugh at himself and is endearingly unself-concious. Ohtori is in many way like a little boy, innocent but not naive, earnest and impulsive; the sort of boy that wears his heart on his sleeve. This is the boy who not only helped the disgraced Shishido, but was willing to give up his own spot on the team for him (although if you ask me, that had as much todo with impetous teenage love as with genuine selflessness).</p>\r\n\r\n<p>But underneath the air of sweet innocence lies a quiet, formidable strength of character. That is how a \"boy next door\" has survived and even thrived in a team as fiercely competitive as Hyoutei.</p>",
      "stats": "<li><strong> Blood Type:</strong> O  </li>\r\n<li><strong> Birthday:</strong> February 14 (isn't that adorable? ^o^)</li>\r\n<li><strong> Height:</strong> 185cm </li>\r\n<li><strong> Dominant hand:</strong> right</li>\r\n<li><strong> Favorite foods:</strong> beef casserole</li>\r\n<li><strong> Hobbies:</strong> playing the piano and the violin</li>\r\n<li><strong> Best subjects:</strong> Fine Arts, Music</li>\r\n<li><strong> Fave color:</strong> eggshell white</li>",
      "pic": "boys_ohtori.jpg",
      "seiyuu": "Namikawa Daisuke",
      "seiyuustats": "<li><strong> Blood Type:</strong> B </li>\r\n<li><strong> Height</strong> 173cm</li>\r\n<li><strong> Weight:</strong> 60.5 Kg </li>\r\n<li><strong> Birthday:</strong> April 2, 1976</li>\r\n<li><strong> Birthplace:</strong> Tokyo</li>\r\n<li><strong> Hobbies:</strong> shougi, ping pong, soccer, snowboarding</li>\r\n<li><strong> Special skills:</strong> aikido, ping pong</li>"
    },
    {
      "title": "Kabaji Munehiro",
      "personality": "",
      "stats": "<li><strong> Blood Type:</strong> O type </li>\r\n<li><strong> Birthday:</strong> January 3 </li>\r\n<li><strong> Height:</strong> 190cm</li>\r\n<li><strong> Dominant hand:</strong> right</li>\r\n<li><strong> Favorite foods:</strong> pizza, gyuudon (beef & veggies w/rice)</li>\r\n<li><strong> Hobby:</strong> bottle ship building</li>\r\n<li><strong> Best subjects:</strong> Fine Arts, Home Ec., Physics</li>\r\n<li><strong> Fave colors:</strong> light primary colors (red, green, blue)</li>",
      "pic": "boys_kabaji.jpg",
      "seiyuu": "Tsuruoka Satoshi",
      "seiyuustats": "<li><strong> Birthday:</strong> October 19</li>\r\n<li><strong> Birthplace:</strong> Kanagawa</li>\r\n<li><strong> Hobbies:</strong> basketball, cars</li>\r\n"
    },
    {
      "title": "Hiyoshi Wakashi",
      "personality": "",
      "stats": "<li><strong> Blood type:</strong> AB</li>\r\n<li><strong> Birthday:</strong> December 5</li>\r\n<li><strong> Height:</strong> 172cm </li>\r\n<li><strong> Dominant hand:</strong> right</li>",
      "pic": "boys_hiyoshi.jpg",
      "seiyuu": "Iwasaki Masami",
      "seiyuustats": "<li><strong> Birthday:</strong> October 25</li>\r\n<li><strong> Birthplace:</strong> Tokyo</li>"
    },
    {
      "title": "Taki Haginosuke",
      "personality": "",
      "stats": "<li><strong> Blood Type:</strong> A</li>\r\n<li><strong> Birthday:</strong> October 29</li>\r\n<li><strong> Height:</strong> 167cm </li>\r\n<li><strong> Dominant hand:</strong> right</li>",
      "pic": "boys_taki.jpg",
      "seiyuu": "Kiyasu Kohei",
      "seiyuustats": "<li><strong> Blood type:</strong> B</li>\r\n<li><strong> Birthday:</strong> February 19</li>\r\n<li><strong> Birthplace:</strong> Ehimeken (prefecture onthe island of Shikoku)</li>\r\n<li><strong> Hobby:</strong> swimming</li>"
    },
    {
      "title": "Sakaki Tarou",
      "personality": "",
      "stats": "<li><strong> Blood type:</strong> O </li>\r\n<li><strong> Birthday:</strong> March 14 </li>\r\n<li><strong> Height:</strong> 183cm</li>\r\n<li><strong> Age:</strong> 43 </li>\r\n<li><strong> Dominant hand:</strong> right</li>\r\n<li><strong> Favorite foods:</strong> roasted fillet meat pie, Bourgogne-style beef stew</li>\r\n<li><strong> Hobbies:</strong> music appreciation (on a gramophone), collecting SP records</li>\r\n<li><strong> Fave colors:</strong> amber</li>",
      "pic": "boysNOT_sakaki.jpg",
      "seiyuu": "Kosugi Juurouta",
      "seiyuustats": "<li><strong> Blood type:</strong> B </li>\r\n<li><strong> Birthday:</strong> December 19</li>\r\n<li><strong> Birthplace:</strong> Yokohama</li>\r\n<li><strong> Hobbies:</strong> golf</li>"
    }
  ]
